{
  "0.17.0": {
    "puzzles.firstmove.tutorial": {
      "count": 16,
      "ms": 2007
    },
    "puzzles.firstmove.beginner": {
      "count": 16,
      "ms": 2664
    },
    "puzzles.firstmove.tough": {
      "count": 1,
      "ms": 76
    },
    "puzzles.firstmove.total": {
      "count": 33,
      "ms": 4838
    }
  },
  "0.18.0": {
    "puzzles.firstmove.tutorial": {
      "count": 16,
      "ms": 10164
    },
    "puzzles.firstmove.beginner": {
      "count": 15,
      "ms": 17864
    },
    "puzzles.firstmove.tough": {
      "count": 26,
      "ms": 30349
    },
    "puzzles.firstmove.advanced": {
      "count": 1,
      "ms": 427
    },
    "puzzles.firstmove.total": {
      "count": 58,
      "ms": 59031
    }
  },
  "0.19.0": {
    "puzzles.firstmove.tutorial": {
      "count": 16,
      "ms": 9753
    },
    "puzzles.firstmove.beginner": {
      "count": 15,
      "ms": 17376
    },
    "puzzles.firstmove.tough": {
      "count": 25,
      "ms": 26380
    },
    "puzzles.firstmove.total": {
      "count": 56,
      "ms": 55167
    }
  },
  "0.20.0": {
    "puzzles.firstmove.tutorial": {
      "count": 16,
      "ms": 9578
    },
    "puzzles.firstmove.beginner": {
      "count": 15,
      "ms": 17120
    },
    "puzzles.firstmove.tough": {
      "count": 20,
      "ms": 22511
    },
    "puzzles.firstmove.total": {
      "count": 51,
      "ms": 49968
    }
  }
}